[gd_resource type="Curve" format=3 uid="uid://iujbjnv3adif"]

[resource]
min_value = 1.0
max_value = 1.5
_data = [Vector2(0, 1), 0.0, 0.0, 0, 0, Vector2(0.302239, 1.31053), 0.838692, 0.838692, 0, 0, Vector2(0.518657, 1.5), 0.0, 0.0, 0, 0, Vector2(1, 1), 0.0, 0.0, 0, 0]
point_count = 4
